%YAML 1.1
%TAG !u! tag:unity3d.com,2011:
--- !u!114 &11400000
MonoBehaviour:
  m_ObjectHideFlags: 0
  m_CorrespondingSourceObject: {fileID: 0}
  m_PrefabInstance: {fileID: 0}
  m_PrefabAsset: {fileID: 0}
  m_GameObject: {fileID: 0}
  m_Enabled: 1
  m_EditorHideFlags: 0
  m_Script: {fileID: 11500000, guid: c73a67d5640a430459b98a61f4d568b4, type: 3}
  m_Name: ZombiNormal
  m_EditorClassIdentifier: 
  hp: 5
  "da\xF1o": 1
  velocidad: 5
  "tama\xF1o": 0
